%YAML 1.1
%TAG !u! tag:unity3d.com,2011:
--- !u!114 &11400000
MonoBehaviour:
  m_ObjectHideFlags: 0
  m_PrefabParentObject: {fileID: 0}
  m_PrefabInternal: {fileID: 0}
  m_GameObject: {fileID: 0}
  m_Enabled: 1
  m_EditorHideFlags: 0
  m_Script: {fileID: 11500000, guid: 2012bcf870c23a6469bafb2fad99fa74, type: 3}
  m_Name: Level03BadGuysRespawn1Specification
  m_EditorClassIdentifier: 
  ComponentDataProviders:
  - {fileID: 114420387153753770}
  - {fileID: 114394425133468154}
--- !u!114 &114394425133468154
MonoBehaviour:
  m_ObjectHideFlags: 0
  m_PrefabParentObject: {fileID: 0}
  m_PrefabInternal: {fileID: 0}
  m_GameObject: {fileID: 0}
  m_Enabled: 1
  m_EditorHideFlags: 0
  m_Script: {fileID: 11500000, guid: 41836e7cae1553a4aa74f7cc62ee58e3, type: 3}
  m_Name: RespawnComponentDataProvider
  m_EditorClassIdentifier: 
  respawnData:
  - EnemiesCount: 150
    RespawnEnemyRecords:
    - EntityDatabaseId: 3
      Chance: 100
--- !u!114 &114420387153753770
MonoBehaviour:
  m_ObjectHideFlags: 0
  m_PrefabParentObject: {fileID: 0}
  m_PrefabInternal: {fileID: 0}
  m_GameObject: {fileID: 0}
  m_Enabled: 1
  m_EditorHideFlags: 0
  m_Script: {fileID: 11500000, guid: 7ea22863063edf84c8e2065838264183, type: 3}
  m_Name: PositioningComponentDataProvider
  m_EditorClassIdentifier: 
  Component:
    Transform: {fileID: 0}
    PreviousPosition: {x: 0, y: 0, z: 0}
